Tidy Finance and Accessing Financial Data
…
factors_ff3_monthly_raw <- download_french_data("Fama/French 3 Factors")
factors_ff3_monthly <- factors_ff3_monthly_raw$subsets$data[[1]] |>
  mutate(
    month = floor_date(ymd(str_c(date, "01")), "month"),
    across(c(RF, `Mkt-RF`, SMB, HML), ~as.numeric(.) / 100),
    .keep = "none"
  ) |>
  rename_with(str_to_lower) |>
  rename(mkt_excess = `mkt-rf`) |>
  select(month, everything())

print(factors_ff3_monthly, n = 5)

# A tibble: 1,170 × 5
  month      mkt_excess     smb     hml     rf
  <date>          <dbl>   <dbl>   <dbl>  <dbl>
1 1926-07-01     0.0296 -0.0256 -0.0243 0.0022
2 1926-08-01     0.0264 -0.0117  0.0382 0.0025
3 1926-09-01     0.0036 -0.014   0.0013 0.0023
4 1926-10-01    -0.0324 -0.0009  0.007  0.0032
5 1926-11-01     0.0253 -0.001  -0.0051 0.0031
# ℹ 1,165 more rows
…
library(readr)

factors_q_monthly_link <-
  "https://global-q.org/uploads/1/2/2/6/122679606/q5_factors_monthly_2022.csv"

factors_q_monthly <- read_csv(factors_q_monthly_link) |>
  mutate(month = ymd(str_c(year, month, "01", sep = "-"))) |>
  select(-R_F, -R_MKT, -year) |>
  rename_with(~ str_remove(., "R_")) |>
  rename_with(~ str_to_lower(.)) |>
  mutate(across(-month, ~ . / 100)) 

print(factors_q_monthly, n = 5)

# A tibble: 672 × 5
  month            me       ia     roe       eg
  <date>        <dbl>    <dbl>   <dbl>    <dbl>
1 1967-01-01  0.0683  -0.0297  0.0192  -0.0218 
2 1967-02-01  0.0165  -0.00227 0.0354   0.0222 
3 1967-03-01  0.0200  -0.0178  0.0184  -0.0104 
4 1967-04-01 -0.00690 -0.0288  0.0106  -0.0173 
5 1967-05-01  0.0285   0.0252  0.00692  0.00158
# ℹ 667 more rows
…
library(readxl)

download.file(
  url = "https://docs.google.com/spreadsheets/d/1g4LOaRj4TvwJr9RIaA_nwrXXWTOy46bP/export?format=xlsx", 
  destfile = "macro_predictors.xlsx", 
  mode = "wb"
)

macro_predictors <- read_xlsx("macro_predictors.xlsx", sheet = "Monthly") |> 
  mutate(
    # Several cleaning steps & variable transformations...
  )

# A tibble: 1,152 × 15
  month        rp_div    dp    dy    ep     de     svar    bm   ntis    tbl
  <date>        <dbl> <dbl> <dbl> <dbl>  <dbl>    <dbl> <dbl>  <dbl>  <dbl>
1 1926-12-01 -0.0220  -2.97 -2.96 -2.39 -0.586 0.000465 0.441 0.0509 0.0307
2 1927-01-01  0.0422  -2.94 -2.96 -2.37 -0.568 0.000470 0.444 0.0508 0.0323
3 1927-02-01  0.00363 -2.98 -2.93 -2.43 -0.549 0.000287 0.429 0.0517 0.0329
4 1927-03-01  0.0142  -2.98 -2.97 -2.45 -0.531 0.000924 0.470 0.0464 0.032 
5 1927-04-01  0.0459  -2.98 -2.97 -2.47 -0.513 0.000603 0.457 0.0505 0.0339
# ℹ 1,147 more rows
# ℹ 5 more variables: lty <dbl>, ltr <dbl>, tms <dbl>, dfy <dbl>, infl <dbl>
…
10K data sets available via Federal Reserve Economic Data (FRED) database

library(tidyquant)

# Example: consumer price index (CPI)
cpi_monthly <- tq_get("CPIAUCNS", get = "economic.data") |>
  mutate(
    month = floor_date(date, "month"),
    cpi = price / price[month == max(month)],
    .keep = "none"
  )
print(cpi_monthly, n = 5)

# A tibble: 121 × 2
  month        cpi
  <date>     <dbl>
1 2014-01-01 0.758
2 2014-02-01 0.761
3 2014-03-01 0.766
4 2014-04-01 0.769
5 2014-05-01 0.771
# ℹ 116 more rows
…
